# Obj
o tri
v 0.500000 0.000000 0.100000
v 0.500000 0.000000 -0.100000
v 0.000000 3.000000 0.100000
v 0.000000 3.000000 -0.100000
v -0.500000 0.000000 0.100000
v -0.500000 0.000000 -0.100000
v -1.000000 0.000000 0.10000
v -1.000000 0.000000 -0.10000
v -1.000000 -1.000000 0.10000
v -1.000000 -1.000000 -0.10000
v 1.000000 -1.000000 0.10000
v 1.000000 -1.000000 -0.10000
v 1.000000 0.000000 0.10000
v 1.000000 0.000000 -0.10000

s off
f 1 3 5
f 4 2 6
f 1 2 4 3
f 3 4 6 5
f 5 6 2 1
f 7 8 11 13
f 8 10 12 14
f 13 14 8 7
f 7 8 10 9
f 11 12 13 14
f 9 10 12 11