# Blender v2.72 (sub 0) OBJ File: ''
# www.blender.org
mtllib head1.mtl
o head1
v 4.000000 13.000000 0.200002
v 8.000000 13.000000 0.200002
v 8.000000 18.000000 0.200003
v 8.000000 13.000000 -0.199998
v 4.000000 13.000000 -0.199998
v 8.000000 18.000000 -0.199997
v 4.000000 18.000000 0.200003
v 4.000000 18.000000 -0.199997
vt 0.000000 0.000000
vt 1.000000 0.000000
vt 1.000000 1.000000
vt 0.000000 1.000000
usemtl Material.001
s off
f 4/1 5/1 6/1
f 6/1 5/1 8/1
f 1/1 5/1 4/1 2/1
f 2/1 4/1 6/1 3/1
f 3/1 6/1 8/1 7/1
f 5/1 1/1 7/1 8/1
usemtl Material.001_Head1.jpg
f 1/1 2/2 3/3
f 1/1 3/3 7/4
