# Blender v2.72 (sub 0) OBJ File: ''
# www.blender.org
mtllib heart2.mtl
o heart2
v 16.000000 6.000000 0.150001
v 16.000000 10.000000 0.150002
v 14.000000 10.000000 0.150002
v 14.000000 6.000000 0.150001
v 14.000000 10.000000 -0.149998
v 16.000000 10.000000 -0.149998
v 16.000000 6.000000 -0.149999
v 14.000000 6.000000 -0.149999
vt 0.000000 0.000000
vt 1.000000 0.000000
vt 1.000000 1.000000
vt 0.000000 1.000000
usemtl Material.001
s off
f 5/1 6/2 7/3 8/4
f 1/1 7/2 6/3 2/4
f 3/1 5/2 8/3 4/4
f 1/1 7/2 4/3 8/4
f 5/1 3/2 2/3 6/4
usemtl Material.001_Heart.jpg
f 1/2 2/3 3/4 4/1
