# Obj
o spike1
v 2.000000 13.000000 0.100000
v 2.000000 13.000000 -0.100000
v 4.000000 13.000000 0.100000
v 4.000000 13.000000 -0.100000
v 3.000000 28.000000 0.100000
v 3.000000 28.000000 -0.100000

s off
f 1 3 5
f 4 2 6
f 1 2 4 3
f 3 4 6 5
f 5 6 2 1
