# Obj
o wall
v -150.000000 -70.000000 0.100000
v -150.000000 -70.000000 -0.100000
v 150.000000 -70.000000 0.100000
v 150.000000 -70.000000 -0.100000
v 150.000000 70.000000 0.100000
v 150.000000 70.000000 -0.100000
v -150.000000 70.000000 0.100000
v -150.000000 70.000000 -0.100000

s off
f 1 3 5
f 4 2 6
f 1 5 7
f 6 2 8
f 1 2 4 3
f 3 4 6 5
f 5 6 8 7
f 7 8 2 1
